Data Manipulation 1
…
Pipe operator %>%

The mpg data set, included in ggplot2 package, contains information about various cars attributes:

Function head returns the top rows of a tibble

head(mpg)

## # A tibble: 6 x 11
##   manufacturer model displ  year   cyl trans      drv     cty   hwy fl    class 
##   <chr>        <chr> <dbl> <int> <int> <chr>      <chr> <int> <int> <chr> <chr> 
## 1 audi         a4      1.8  1999     4 auto(l5)   f        18    29 p     compa
## 2 audi         a4      1.8  1999     4 manual(m5) f        21    29 p     compa
## 3 audi         a4      2    2008     4 manual(m6) f        20    31 p     compa
## 4 audi         a4      2    2008     4 auto(av)   f        21    30 p     compa
## 5 audi         a4      2.8  1999     6 auto(l5)   f        16    26 p     compa
## #  with 1 more row

Pipe operator %>%

By using %>%, the code becomes:

mpg %>% head()

## # A tibble: 6 x 11
##   manufacturer model displ  year   cyl trans      drv     cty   hwy fl    class 
##   <chr>        <chr> <dbl> <int> <int> <chr>      <chr> <int> <int> <chr> <chr> 
## 1 audi         a4      1.8  1999     4 auto(l5)   f        18    29 p     compa
## 2 audi         a4      1.8  1999     4 manual(m5) f        21    29 p     compa
## 3 audi         a4      2    2008     4 manual(m6) f        20    31 p     compa
## 4 audi         a4      2    2008     4 auto(av)   f        21    30 p     compa
## 5 audi         a4      2.8  1999     6 auto(l5)   f        16    26 p     compa
## #  with 1 more row
…
Do not forger to load tidyverse and set options()

require(tidyverse )

options(tibble.print_max = 5, tibble.print_min = 5)

select

Select a subset of columns

The first argument is the name of the data frame, and the second and subsequent are the name of column/s you want to select:

select(mpg, manufacturer,model,year ) 

## # A tibble: 234 x 3
##   manufacturer model  year
##   <chr>        <chr> <int>
## 1 audi         a4     1999
## 2 audi         a4     1999
## 3 audi         a4     2008
## 4 audi         a4     2008
## 5 audi         a4     1999
## #  with 229 more rows

select

Use %>% operator

mpg %>%  select(manufacturer,model,year )

## # A tibble: 234 x 3
##   manufacturer model  year
##   <chr>        <chr> <int>
## 1 audi         a4     1999
## 2 audi         a4     1999
## 3 audi         a4     2008
## 4 audi         a4     2008
## 5 audi         a4     1999
## #  with 229 more rows

select

Select multiple adiacent columns

mpg %>%  select ( manufacturer:year)

## # A tibble: 234 x 4
##   manufacturer model displ  year
##   <chr>        <chr> <dbl> <int>
## 1 audi         a4      1.8  1999
## 2 audi         a4      1.8  1999
## 3 audi         a4      2    2008
## 4 audi         a4      2    2008
## 5 audi         a4      2.8  1999
## #  with 229 more rows

select

Remove single variable

mpg %>%  select ( -class)

## # A tibble: 234 x 10
##   manufacturer model displ  year   cyl trans      drv     cty   hwy fl   
##   <chr>        <chr> <dbl> <int> <int> <chr>      <chr> <int> <int> <chr>
## 1 audi         a4      1.8  1999     4 auto(l5)   f        18    29 p    
## 2 audi         a4      1.8  1999     4 manual(m5) f        21    29 p    
## 3 audi         a4      2    2008     4 manual(m6) f        20    31 p    
## 4 audi         a4      2    2008     4 auto(av)   f        21    30 p    
## 5 audi         a4      2.8  1999     6 auto(l5)   f        16    26 p    
## #  with 229 more rows

select

Remove more than one variable

mpg %>%  select (- c(year, class)) 

## # A tibble: 234 x 9
##   manufacturer model displ   cyl trans      drv     cty   hwy fl   
##   <chr>        <chr> <dbl> <int> <chr>      <chr> <int> <int> <chr>
## 1 audi         a4      1.8     4 auto(l5)   f        18    29 p    
## 2 audi         a4      1.8     4 manual(m5) f        21    29 p    
## 3 audi         a4      2       4 manual(m6) f        20    31 p    
## 4 audi         a4      2       4 auto(av)   f        21    30 p    
## 5 audi         a4      2.8     6 auto(l5)   f        16    26 p    
## #  with 229 more rows

select

Use some tidy select syntax

mpg %>%  select ( starts_with('m'))

## # A tibble: 234 x 2
##   manufacturer model
##   <chr>        <chr>
## 1 audi         a4   
## 2 audi         a4   
## 3 audi         a4   
## 4 audi         a4   
## 5 audi         a4   
## #  with 229 more rows

rename

Rename variables with select()

mpg %>% select(brand = manufacturer )

## # A tibble: 234 x 1
##   brand
##   <chr>
## 1 audi 
## 2 audi 
## 3 audi 
## 4 audi 
## 5 audi 
## #  with 229 more rows

rename

Even rename() works

mpg %>% rename ( brand = manufacturer )

## # A tibble: 234 x 11
##   brand model displ  year   cyl trans      drv     cty   hwy fl    class  
##   <chr> <chr> <dbl> <int> <int> <chr>      <chr> <int> <int> <chr> <chr>  
## 1 audi  a4      1.8  1999     4 auto(l5)   f        18    29 p     compact
## 2 audi  a4      1.8  1999     4 manual(m5) f        21    29 p     compact
## 3 audi  a4      2    2008     4 manual(m6) f        20    31 p     compact
## 4 audi  a4      2    2008     4 auto(av)   f        21    30 p     compact
## 5 audi  a4      2.8  1999     6 auto(l5)   f        16    26 p     compact
## #  with 229 more rows

rename all

Rename all columns

mpg %>% rename_all(toupper)

## # A tibble: 234 x 11
##   MANUFACTURER MODEL DISPL  YEAR   CYL TRANS      DRV     CTY   HWY FL    CLASS 
##   <chr>        <chr> <dbl> <int> <int> <chr>      <chr> <int> <int> <chr> <chr> 
## 1 audi         a4      1.8  1999     4 auto(l5)   f        18    29 p     compa
## 2 audi         a4      1.8  1999     4 manual(m5) f        21    29 p     compa
## 3 audi         a4      2    2008     4 manual(m6) f        20    31 p     compa
## 4 audi         a4      2    2008     4 auto(av)   f        21    30 p     compa
## 5 audi         a4      2.8  1999     6 auto(l5)   f        16    26 p     compa
## #  with 229 more rows
…
filter

The first argument is the name of the tibble, and the second and subsequent are filtering expressions evaluated in the context of that tibble.

All cars made by subaru:

filter(mpg, manufacturer == 'subaru')

## # A tibble: 14 x 11
##   manufacturer model     displ  year   cyl trans   drv     cty   hwy fl    class
##   <chr>        <chr>     <dbl> <int> <int> <chr>   <chr> <int> <int> <chr> <chr>
## 1 subaru       forester   2.5  1999     4 manual 4        18    25 r     suv  
## 2 subaru       forester   2.5  1999     4 auto(l 4        18    24 r     suv  
## 3 subaru       forester   2.5  2008     4 manual 4        20    27 r     suv  
## 4 subaru       forester   2.5  2008     4 manual 4        19    25 p     suv  
## 5 subaru       forester   2.5  2008     4 auto(l 4        20    26 r     suv  
## #  with 9 more rows

filter

filter() allows you to give it any number of filtering conditions which are joined together with & operator

All cars made by subaru of class suv

mpg %>% filter(manufacturer == 'subaru', class == 'suv') 

## # A tibble: 6 x 11
##   manufacturer model     displ  year   cyl trans   drv     cty   hwy fl    class
##   <chr>        <chr>     <dbl> <int> <int> <chr>   <chr> <int> <int> <chr> <chr>
## 1 subaru       forester   2.5  1999     4 manual 4        18    25 r     suv  
## 2 subaru       forester   2.5  1999     4 auto(l 4        18    24 r     suv  
## 3 subaru       forester   2.5  2008     4 manual 4        20    27 r     suv  
## 4 subaru       forester   2.5  2008     4 manual 4        19    25 p     suv  
## 5 subaru       forester   2.5  2008     4 auto(l 4        20    26 r     suv  
## #  with 1 more row
…
filter

Using or condition

mpg %>% filter(manufacturer == 'subaru', displ> 7 | class == 'suv')

## # A tibble: 6 x 11
##   manufacturer model     displ  year   cyl trans   drv     cty   hwy fl    class
##   <chr>        <chr>     <dbl> <int> <int> <chr>   <chr> <int> <int> <chr> <chr>
## 1 subaru       forester   2.5  1999     4 manual 4        18    25 r     suv  
## 2 subaru       forester   2.5  1999     4 auto(l 4        18    24 r     suv  
## 3 subaru       forester   2.5  2008     4 manual 4        20    27 r     suv  
## 4 subaru       forester   2.5  2008     4 manual 4        19    25 p     suv  
## 5 subaru       forester   2.5  2008     4 auto(l 4        20    26 r     suv  
## #  with 1 more row

filter

Use filter() in conjunction with %in%

mpg %>% filter(year %in% c(2008, 2009), manufacturer == 'audi' )

## # A tibble: 9 x 11
##   manufacturer model    displ  year   cyl trans   drv     cty   hwy fl    class 
##   <chr>        <chr>    <dbl> <int> <int> <chr>   <chr> <int> <int> <chr> <chr> 
## 1 audi         a4         2    2008     4 manual f        20    31 p     compa
## 2 audi         a4         2    2008     4 auto(a f        21    30 p     compa
## 3 audi         a4         3.1  2008     6 auto(a f        18    27 p     compa
## 4 audi         a4 quat   2    2008     4 manual 4        20    28 p     compa
## 5 audi         a4 quat   2    2008     4 auto(s 4        19    27 p     compa
## #  with 4 more rows

filter

Use filter() with | (or) operator

mpg %>% filter(manufacturer == 'subaru' | class == 'suv')

## # A tibble: 70 x 11
##   manufacturer model      displ  year   cyl trans  drv     cty   hwy fl    class
##   <chr>        <chr>      <dbl> <int> <int> <chr>  <chr> <int> <int> <chr> <chr>
## 1 chevrolet    c1500 sub   5.3  2008     8 auto( r        14    20 r     suv  
## 2 chevrolet    c1500 sub   5.3  2008     8 auto( r        11    15 e     suv  
## 3 chevrolet    c1500 sub   5.3  2008     8 auto( r        14    20 r     suv  
## 4 chevrolet    c1500 sub   5.7  1999     8 auto( r        13    17 r     suv  
## 5 chevrolet    c1500 sub   6    2008     8 auto( r        12    17 r     suv  
## #  with 65 more rows

filter

Use filter() with between

mpg %>% filter(between(displ  , 6, 7))

## # A tibble: 6 x 11
##   manufacturer model     displ  year   cyl trans   drv     cty   hwy fl    class
##   <chr>        <chr>     <dbl> <int> <int> <chr>   <chr> <int> <int> <chr> <chr>
## 1 chevrolet    c1500 su   6    2008     8 auto(l r        12    17 r     suv  
## 2 chevrolet    corvette    6.2  2008     8 manual r        16    26 p     2sea
## 3 chevrolet    corvette    6.2  2008     8 auto(s r        15    25 p     2sea
## 4 chevrolet    corvette    7    2008     8 manual r        15    24 p     2sea
## 5 chevrolet    k1500 ta   6.5  1999     8 auto(l 4        14    17 d     suv  
## #  with 1 more row
…
arrange

Order by year

mpg %>% arrange(year)

## # A tibble: 234 x 11
##   manufacturer model    displ  year   cyl trans   drv     cty   hwy fl    class 
##   <chr>        <chr>    <dbl> <int> <int> <chr>   <chr> <int> <int> <chr> <chr> 
## 1 audi         a4         1.8  1999     4 auto(l f        18    29 p     compa
## 2 audi         a4         1.8  1999     4 manual f        21    29 p     compa
## 3 audi         a4         2.8  1999     6 auto(l f        16    26 p     compa
## 4 audi         a4         2.8  1999     6 manual f        18    26 p     compa
## 5 audi         a4 quat   1.8  1999     4 manual 4        18    26 p     compa
## #  with 229 more rows

arrange

Order by displ within manufacturer

mpg %>% arrange(manufacturer, displ)

## # A tibble: 234 x 11
##   manufacturer model    displ  year   cyl trans   drv     cty   hwy fl    class 
##   <chr>        <chr>    <dbl> <int> <int> <chr>   <chr> <int> <int> <chr> <chr> 
## 1 audi         a4         1.8  1999     4 auto(l f        18    29 p     compa
## 2 audi         a4         1.8  1999     4 manual f        21    29 p     compa
## 3 audi         a4 quat   1.8  1999     4 manual 4        18    26 p     compa
## 4 audi         a4 quat   1.8  1999     4 auto(l 4        16    25 p     compa
## 5 audi         a4         2    2008     4 manual f        20    31 p     compa
## #  with 229 more rows

arrange

Descending order

mpg  %>% arrange(desc(year))

## # A tibble: 234 x 11
##   manufacturer model    displ  year   cyl trans   drv     cty   hwy fl    class 
##   <chr>        <chr>    <dbl> <int> <int> <chr>   <chr> <int> <int> <chr> <chr> 
## 1 audi         a4         2    2008     4 manual f        20    31 p     compa
## 2 audi         a4         2    2008     4 auto(a f        21    30 p     compa
## 3 audi         a4         3.1  2008     6 auto(a f        18    27 p     compa
## 4 audi         a4 quat   2    2008     4 manual 4        20    28 p     compa
## 5 audi         a4 quat   2    2008     4 auto(s 4        19    27 p     compa
## #  with 229 more rows

arrange

Descending order

mpg  %>% arrange(desc(manufacturer, year))

## # A tibble: 234 x 11
##   manufacturer model displ  year   cyl trans      drv     cty   hwy fl    class 
##   <chr>        <chr> <dbl> <int> <int> <chr>      <chr> <int> <int> <chr> <chr> 
## 1 volkswagen   gti     2    1999     4 manual(m5) f        21    29 r     compa
## 2 volkswagen   gti     2    1999     4 auto(l4)   f        19    26 r     compa
## 3 volkswagen   gti     2    2008     4 manual(m6) f        21    29 p     compa
## 4 volkswagen   gti     2    2008     4 auto(s6)   f        22    29 p     compa
## 5 volkswagen   gti     2.8  1999     6 manual(m5) f        17    24 r     compa
## #  with 229 more rows
…
chain

Average hwy for top three city fuel consumer by manufacturer

mpg %>% 
  arrange(manufacturer, cty) %>% 
  group_by(manufacturer) %>% 
  slice(1:3) %>% 
  summarise(avg_hwy = mean(hwy), .groups = 'drop')

## # A tibble: 15 x 2
##   manufacturer avg_hwy
##   <chr>          <dbl>
## 1 audi            24.7
## 2 chevrolet       14.7
## 3 dodge           12  
## 4 ford            16.3
## 5 honda           30  
## #  with 10 more rows
…
group_by applies verb functions separately onto groups of observations

group_by

Summarise

mpg %>% 
  group_by(manufacturer) %>%
  summarise( avg_displ = mean(displ),
             avg_cty = mean(cty), 
             n = n(),
             .groups = 'drop')

## # A tibble: 15 x 4
##   manufacturer avg_displ avg_cty     n
##   <chr>            <dbl>   <dbl> <int>
## 1 audi              2.54    17.6    18
## 2 chevrolet         5.06    15      19
## 3 dodge             4.38    13.1    37
## 4 ford              4.54    14      25
## 5 honda             1.71    24.4     9
## #  with 10 more rows

group_by

Filter

mpg %>% 
  group_by(manufacturer) %>%
  filter( displ == max(displ)) 

## # A tibble: 33 x 11
## # Groups:   manufacturer [15]
##   manufacturer model     displ  year   cyl trans   drv     cty   hwy fl    class
##   <chr>        <chr>     <dbl> <int> <int> <chr>   <chr> <int> <int> <chr> <chr>
## 1 audi         a6 quatt   4.2  2008     8 auto(s 4        16    23 p     mids
## 2 chevrolet    corvette    7    2008     8 manual r        15    24 p     2sea
## 3 dodge        durango    5.9  1999     8 auto(l 4        11    15 r     suv  
## 4 dodge        ram 1500   5.9  1999     8 auto(l 4        11    15 r     pick
## 5 ford         expediti   5.4  1999     8 auto(l r        11    17 r     suv  
## #  with 28 more rows

group_by

Arrange

mpg %>% 
  group_by(drv) %>%
  arrange( cty) 

## # A tibble: 234 x 11
## # Groups:   drv [3]
##   manufacturer model      displ  year   cyl trans  drv     cty   hwy fl    class
##   <chr>        <chr>      <dbl> <int> <int> <chr>  <chr> <int> <int> <chr> <chr>
## 1 dodge        dakota pi   4.7  2008     8 auto( 4         9    12 e     pick
## 2 dodge        durango 4   4.7  2008     8 auto( 4         9    12 e     suv  
## 3 dodge        ram 1500    4.7  2008     8 auto( 4         9    12 e     pick
## 4 dodge        ram 1500    4.7  2008     8 manua 4         9    12 e     pick
## 5 jeep         grand che   4.7  2008     8 auto( 4         9    12 e     suv  
## #  with 229 more rows

group_by

Mutate

mpg %>% 
  group_by(manufacturer) %>%
  mutate(avg_dspl = mean(displ)) 

## # A tibble: 234 x 12
## # Groups:   manufacturer [15]
##   manufacturer model displ  year   cyl trans drv     cty   hwy fl    class
##   <chr>        <chr> <dbl> <int> <int> <chr> <chr> <int> <int> <chr> <chr>
## 1 audi         a4      1.8  1999     4 auto f        18    29 p     comp
## 2 audi         a4      1.8  1999     4 manu f        21    29 p     comp
## 3 audi         a4      2    2008     4 manu f        20    31 p     comp
## 4 audi         a4      2    2008     4 auto f        21    30 p     comp
## 5 audi         a4      2.8  1999     6 auto f        16    26 p     comp
## #  with 229 more rows, and 1 more variable: avg_dspl <dbl>
